{
    "color_rgb": [
        175,
        133,
        91
    ],
    "psets": [
        {
            "name": "Hands-on IFC",
            "attributes": [
                {
                    "name": "Attribute 1",
                    "type": "IfcText",
                    "value": "Text"
                },
                {
                    "name": "Attribute 2",
                    "type": "IfcBoolean",
                    "value": true
                },
                {
                    "name": "Attribute 3",
                    "type": "IfcReal",
                    "value": 2.569
                },
                {
                    "name": "Attribute 4",
                    "type": "IfcInteger",
                    "value": 3
                }
            ]
        },
        {
            "name": "Hands-on IFC 2",
            "attributes": [
                {
                    "name": "Attribute 5",
                    "type": "IfcText",
                    "value": "Anderer Text"
                },
                {
                    "name": "Attribute 6",
                    "type": "IfcBoolean",
                    "value": false
                },
                {
                    "name": "Attribute 7",
                    "type": "IfcReal",
                    "value": 3.124
                },
                {
                    "name": "Attribute 8",
                    "type": "IfcInteger",
                    "value": 5
                }
            ]
        }
    ]
}